…
d_gptLabel <- tibble(
  status_id = str_remove(file_names, "\\.rds$"), 
  relevant_gpt = gpt_labels)

d_gptLabel |> print(n = 5)
```

    ## # A tibble: 40 × 2
    ##   status_id           relevant_gpt
    ##   <chr>               <chr>       
    ## 1 1212265682634604544 "0"         
    ## 2 1212425759421292546 "1"         
    ## 3 1217297045108723713 "0"         
    ## 4 1221020543417233408 "1\n1\n0\n0"
    ## 5 1223437508014493696 "0"         
    ## # ℹ 35 more rows

## Merge with the Human-Annotated Data

``` r
d_train_merge <- d_train |> inner_join(d_gptLabel, by = "status_id")

d_train_merge |> print(n = 5)
```

    ## # A tibble: 40 × 4
    ##   status_id           text                              relevant_ra relevant_gpt
    ##   <chr>               <chr>                                   <dbl> <chr>       
    ## 1 1212265682634604544 ONCE !     Update : the police a…           1 "0"         
    ## 2 1212425759421292546 The release of these updated ter…           1 "1"         
    ## 3 1217297045108723713 My account would get suspended i…           1 "0"         
    ## 4 1221020543417233408 - Huawei Prepared for Any Furthe…           0 "1\n1\n0\n0"
    ## 5 1223437508014493696 Here in Ontario there’s many peo…           0 "0"         
    ## # ℹ 35 more rows
…
d_gptLabel <- tibble(
  status_id = str_remove(file_names, "\\.rds$"), 
  relevant_gpt4 = gpt_labels)

d_gptLabel |> print(n = 5)
```

    ## # A tibble: 40 × 2
    ##   status_id           relevant_gpt4
    ##   <chr>               <chr>        
    ## 1 1212265682634604544 1            
    ## 2 1212425759421292546 1            
    ## 3 1217297045108723713 1            
    ## 4 1221020543417233408 0            
    ## 5 1223437508014493696 0            
    ## # ℹ 35 more rows

## Merge GPT-4 Results

``` r
d_train_merge_2 <- d_train_merge |> inner_join(d_gptLabel, by = "status_id")
d_train_merge_2 |> print(n = 5)
```

    ## # A tibble: 40 × 5
    ##   status_id           text                relevant_ra relevant_gpt relevant_gpt4
    ##   <chr>               <chr>                     <dbl> <chr>        <chr>        
    ## 1 1212265682634604544 ONCE !     Update …           1 "0"          1            
    ## 2 1212425759421292546 The release of the…           1 "1"          1            
    ## 3 1217297045108723713 My account would g…           1 "0"          1            
    ## 4 1221020543417233408 - Huawei Prepared …           0 "1\n1\n0\n0" 0            
    ## 5 1223437508014493696 Here in Ontario th…           0 "0"          0            
    ## # ℹ 35 more rows
…
